{
	"type": "occupationConfig",
	"title": "OCCP.CONFIG.DESC",
	"path": "/DynTemplate",
	"items": [
		{
			"id": "occupationDetail",
			"type": "section",
			"title": "OCCP Detail",
			"items": [
				{
					"id": "occupationCode",
					"detailSeq": 1,
					"type": "text",
					"title": "OCCP Code",
					"isKey": true,
					"allowUpdate": false,
					"mandatory": true
				},
				{
					"id": "occupationName",
					"detailSeq": 1,
					"type": "multText",
					"title": "OCCP Name",
					"items": [
						{
							"id": "en",
							"title": "English",
							"mandatory": true
						},
						{
							"id": "zh-tw",
							"title": "中文"
						}
					],
					"allowUpdate": false,
					"mandatory": true
				},
				{
					"id": "remarks",
					"detailSeq": 1,
					"type": "multText",
					"subType": "html",
					"title": "Remarks",
					"items": [
						{
							"id": "en",
							"title": "English",
							"mandatory": true
						},
						{
							"id": "zh-tw",
							"title": "中文"
						}
					],
					"allowUpdate": true
				},
				{
					"type": "hbox",
					"detailSeq": 1,
					"presentation": "column2",
					"items": [
						{
							"id": "launchDate",
							"detailSeq": 1,
							"type": "datePicker",
							"value": "$today",
							"title": "Launch Date",
							"allowUpdate": true,
							"mandatory": true
						},
						{
							"id": "expiryDate",
							"detailSeq": 1,
							"type": "datePicker",
							"value": "$oneyearlater",
							"title": "Expiry Date",
							"allowUpdate": true,
							"mandatory": true
						}
					]
				}
			]
		}
	]
}