{
    "type": "productConfig",
    "title": "PROD.CONFIG.DESC",
    "items": [{
        "id": "ProdDetail",
        "type": "section",
        "title": "Product Detail",
        "items": [{
            "id": "covCode",
            "detailSeq": 1,
            "type": "text",
            "title": "Product Code",
            "isKey": true,
            "allowUpdate": false,
            "mandatory": true
        }, {
            "id": "covName",
            "detailSeq": 1,
            "type": "multText",
            "title": "Product Name",
            "allowUpdate": false,
            "mandatory": true
        }, {
            "type": "hbox",
            "detailSeq": 1,
            "presentation": "column2",
            "items": [{
                "id": "planInd",
                "detailSeq": 1,
                "type": "readOnly",
                "title": "Plan Type",
                "options":[{
                    "value":"B",
                    "title":"Basic Plan"
                }, {
                    "value":"R",
                    "title":"Rider"
                }]
            }, {
                "id": "productLine",
                "detailSeq": 1,
                "type": "picker",
                "title": "Product Line",
                "optionTable": "V_PROD_LINE",
                "presentation": "pl_code,name_desc",
                "options": [{
                    "value": "life",
                    "title": "Life Protection"
                }, {
                    "value": "retire",
                    "title": "Retire"
                }, {
                    "value": "medical",
                    "title": "Medical"
                }],
                "allowUpdate": false,
                "mandatory": true
            }, {
                "id": "productCategory",
                "detailSeq": 1,
                "type": "picker",
                "title": "Product Category",
                "options": [{
                    "value": "cv",
                    "title": "Cash Value (non-ILP)"
                }, {
                    "value": "ilp",
                    "title": "ILP"
                }, {
                    "value": "protectionOnly",
                    "title": "Protection only"
                }, {
                    "value": "sgResidentOnly",
                    "title": "SG resident only"
                }],
                "mandatory": true
            }]
        }, {
            "id": "remarks",
            "detailSeq": 1,
            "type": "multText",
            "subType": "html",
            "title": "Remarks",
            "allowUpdate": true
        }, {
            "type": "hbox",
            "detailSeq": 1,
            "presentation": "column2",
            "items": [{
                "id": "effDate",
                "detailSeq": 1,
                "type": "datePicker",
                "value": "$today",
                "title": "Launch Date",
                "allowUpdate": true,
                "mandatory": true
            }, {
                "id": "expDate",
                "detailSeq": 1,
                "type": "datePicker",
                "value": "$oneyearlater",
                "title": "Expiry Date",
                "allowUpdate": true,
                "mandatory": true
            }]
        }]
    }, {
        "id": "limitSG",
        "type": "sectionGroup",
        "title": "Product Limit",
        "items": [{
            "id": "ProdFeatures",
            "detailSeq": 1,
            "type": "section",
            "title": "General",
            "items": [{
                "id": "prodFeature",
                "detailSeq": 1,
                "type": "multText",
                "subType": "html",
                "title": "Product Features",
                "allowUpdate": true
            }, {
                "id": "genderInd",
                "detailSeq": 1,
                "type": "picker",
                "title": "Gender",
                "mandatory": true,
                "setAll": true,
                "options": [{
                    "value": "M",
                    "title": "Male"
                }, {
                    "value": "F",
                    "title": "Female"
                }]
            }, {
                "id": "smokeInd",
                "detailSeq": 1,
                "type": "picker",
                "title": "Smoking Habit",
                "mandatory": true,
                "setAll": true,
                "options": [{
                    "value": "S",
                    "title": "Smoker"
                }, {
                    "value": "N",
                    "title": "Non-Smoker"
                }]
            }, {
                "id": "allowBackdate",
                "detailSeq": 1,
                "type": "checkbox",
                "title": "Allow Backdating"
            }, {
                "id": "ctyGroup",
                "detailSeq": 1,
                "type": "complexList",
                "subType": "table",
                "hints": "Country of Residence",
                "mandatory": true,
                "items": [{
                  "id": "country",
                  "type": "picker",
                  "title": "Country of Residence",
                  "mandatory": true,
                  "setAll": true,
                  "options": [{
                      "value": "R25",
                      "title": "Hong Kong"
                  }, {
                      "value": "R2",
                      "title": "Singapore"
                  }, {
                      "value": "O",
                      "title": "Other Country"
                  }]
                }]
            }, {
                "id": "dealerGroup",
                "detailSeq": 1,
                "type": "checkboxGroup",
                "title": "Channel",
                "optionTable": "SYS_CHANNEL_MST",
                "presentation": "CHANNEL_CODE,CHANNEL_NAME",
                "mandatory": true
            }, {
                "id": "budgetRules",
                "detailSeq":1,
                "type": "checkboxGroup",
                "title": "Premium Budget Rules",
                "mandatory": true,
                "options": [{
                    "value": "RP",
                    "title": "Regular Premium"
                }, {
                    "value": "SP",
                    "title": "Single Premium"
                }, {
                    "value": "CPF-OA",
                    "title": "CPF(OA) Premium"
                }, {
                    "value": "CPF-SA",
                    "title": "CPF(SA) Premium"
                }, {
                    "value": "SRS",
                    "title": "SRS Premium"
                }, {
                    "value": "MED",
                    "title": "Medisave Premium"
                }]
            }]
        }, {
            "id": "ageSection",
            "detailSeq": 1,
            "type": "section",
            "title": "Entry Age",
            "items": [{
                "id": "entryAge",
                "detailSeq": 1,
                "type": "complexList",
                "hints": "Entry Age",
                "subType": "table",
                "items": [{
                    "title": "Country of Residence",
                    "type": "column",
                    "items": [{
                        "id": "country",
                        "type": "picker",
                        "title": "Country of Residence",
                        "trigger": [{
                          "type": "optionExistsInReference",
                          "id": "ProdFeatures/ctyGroup@country"
                        }],
                        "reference":"ProdFeatures/ctyGroup@country",
                        "mandatory": true,
                        "setAll": true
                    }]
                }, {
                    "type": "columnGroup",
                    "title": "Insured",
                    "items": [{
                        "type": "column",
                        "title": "Minimum Age",
                        "items": [{
                            "id": "iminAge",
                            "detailSeq": 1,
                            "type": "text",
                            "subType": "number",
                            "title": "Minimum"
                        }, {
                            "id": "iminAgeUnit",
                            "detailSeq": 1,
                            "type": "picker",
                            "title": "Minimum Unit",
                            "options": [{
                                "value": "day",
                                "title": "Day"
                            }, {
                                "value": "month",
                                "title": "Month"
                            }, {
                                "value": "year",
                                "title": "Year"
                            }, {
                                "value": "nearestAge",
                                "title": "Age Nearest Birthday"
                            }, {
                                "value": "nextAge",
                                "title": "Age Next Birthday"
                            }]
                        }]
                    }, {
                        "type": "column",
                        "title": "Maximum Age",
                        "items": [{
                            "id": "imaxAge",
                            "detailSeq": 1,
                            "type": "text",
                            "title": "Maximum",
                            "subType": "number"
                        }, {
                            "id": "imaxAgeUnit",
                            "detailSeq": 1,
                            "type": "picker",
                            "title": "Maximum Unit",
                            "options": [{
                                "value": "day",
                                "title": "Day"
                            }, {
                                "value": "month",
                                "title": "Month"
                            }, {
                                "value": "year",
                                "title": "Year"
                            }, {
                                "value": "nearestAge",
                                "title": "Age Nearest Birthday"
                            }, {
                                "value": "nextAge",
                                "title": "Age Next Birthday"
                            }]
                        }]
                    }, {
                        "type": "column",
                        "title": "Same as Owner",
                        "items": [{
                            "id": "sameAsOwner",
                            "detailSeq": 1,
                            "title": "Same as Owner",
                            "type": "checkbox"
                        }]
                    }]
                }, {
                    "type": "columnGroup",
                    "title": "Owner",
                    "items": [{
                        "type": "column",
                        "title": "Minimum Age",
                        "items": [{
                            "id": "ominAge",
                            "detailSeq": 1,
                            "type": "text",
                            "subType": "number",
                            "title": "Minimum",
                            "trigger": [{
                                "type": "disableIfEqual",
                                "id": "sameAsOwner",
                                "value": "Y"
                            }, {
                                "type": "valueOverride",
                                "id": "sameAsOwner=Y",
                                "reference": "iminAge"
                            }]
                        }, {
                            "id": "ominAgeUnit",
                            "detailSeq": 1,
                            "type": "picker",
                            "title": "Minimum Unit",
                            "options": [{
                                "value": "day",
                                "title": "Day"
                            }, {
                                "value": "month",
                                "title": "Month"
                            }, {
                                "value": "year",
                                "title": "Year"
                            }, {
                                "value": "nearestAge",
                                "title": "Age Nearest Birthday"
                            }, {
                                "value": "nextAge",
                                "title": "Age Next Birthday"
                            }],
                            "trigger": [{
                                "type": "disableIfEqual",
                                "id": "sameAsOwner",
                                "value": "Y"
                            }, {
                                "type": "valueOverride",
                                "id": "sameAsOwner=Y",
                                "reference": "iminAgeUnit"
                            }]
                        }]
                    }, {
                        "type": "column",
                        "title": "Maximum Age",
                        "items": [{
                            "id": "omaxAge",
                            "detailSeq": 1,
                            "type": "text",
                            "subType": "number",
                            "title": "Maximum",
                            "trigger": [{
                                "type": "disableIfEqual",
                                "id": "sameAsOwner",
                                "value": "Y"
                            }, {
                                "type": "valueOverride",
                                "id": "sameAsOwner=Y",
                                "reference": "imaxAge"
                            }]
                        }, {
                            "id": "omaxAgeUnit",
                            "detailSeq": 1,
                            "type": "picker",
                            "title": "Maximum Unit",
                            "options": [{
                                "value": "day",
                                "title": "Day"
                            }, {
                                "value": "month",
                                "title": "Month"
                            }, {
                                "value": "year",
                                "title": "Year"
                            }, {
                                "value": "nearestAge",
                                "title": "Age Nearest Birthday"
                            }, {
                                "value": "nextAge",
                                "title": "Age Next Birthday"
                            }],
                            "trigger": [{
                                "type": "disableIfEqual",
                                "id": "sameAsOwner",
                                "value": "Y"
                            }, {
                                "type": "valueOverride",
                                "id": "sameAsOwner=Y",
                                "reference": "imaxAgeUnit"
                            }]
                        }]
                    }]
                }]
            }]
        }, {
            "id": "polMatSection",
            "detailSeq": 1,
            "type": "section",
            "title": "Policy Maturity",
            "items": [{
                "detailSeq": 1,
                "type": "hbox",
                "presentation": "column2",
                "items": [{
                    "id": "policyMatSameAsBasic",
                    "detailSeq": 1,
                    "type": "checkbox",
                    "title": "Same as Basic Plan",
                    "value": "Y",
                    "trigger": [{
                        "type": "disableIfEqual",
                        "id": "polMatSameAsPremMat",
                        "value": "Y"
                    }]
                }, {
                    "id": "polMatSameAsPremMat",
                    "detailSeq": 1,
                    "type": "checkbox",
                    "title": "Same as Premium Term List",
                    "trigger": [{
                        "type": "disableIfEqual",
                        "id": "policyMatSameAsBasic",
                        "value": "Y"
                    }]
                }, {
                    "id": "polTermInd",
                    "detailSeq": 1,
                    "type": "checkbox",
                    "title": "Allow policy term select"
                }, {
                    "id": "polTermRule",
                    "detailSeq": 1,
                    "type": "picker",
                    "title": "Premium Term Rule",
                    "options": [{
                      "value": "BBT",
                      "title": "Value align to Policy Term of Basic Plan"
                    }, {
                      "value": "BPT",
                      "title": "Value align to Premium Term of Basic Plan"
                    }]
                }, {
                    "id": "wholeLifeInd",
                    "detailSeq": 1,
                    "type": "checkbox",
                    "title": "Whole Life",
                    "value": "N",
                    "trigger": [{
                        "type": "disableIfEqual",
                        "id": "policyMatSameAsBasic",
                        "value": "Y"
                    }, {
                        "type": "disableIfEqual",
                        "id": "polMatSameAsPremMat",
                        "value": "Y"
                    }]
                }, {
                    "id": "wholeLifeAge",
                    "detailSeq": 2,
                    "type": "text",
                    "subType": "number",
                    "title": "Maturity Age",
                    "trigger": [{
                      "type": "showIfEqual",
                      "id": "wholeLifeInd",
                      "value": "Y"
                    }]
                }]
            }, {
                "id": "polMaturities",
                "detailSeq": 1,
                "type": "complexList",
                "subType": "table",
                "title": "Policy Maturity Condition",
                "trigger": [{
                    "type": "hideIfEqual",
                    "id": "policyMatSameAsBasic",
                    "value": "Y"
                }, {
                    "type": "hideIfEqual",
                    "id": "wholeLifeInd",
                    "value": "Y"
                }, {
                    "type": "hideIfEqual",
                    "id": "polMatSameAsPremMat",
                    "value": "Y"
                }],
                "items": [{
                    "title": "Country of Residence",
                    "type": "column",
                    "items": [{
                        "id": "country",
                        "type": "picker",
                        "title": "Country of Residence",
                        "trigger": [{
                          "type": "optionExistsInReference",
                          "id": "ProdFeatures/ctyGroup@country"
                        }],
                        "reference":"ProdFeatures/ctyGroup@country",
                        "mandatory": true,
                        "setAll": true
                    }]
                }, {
                    "type": "columnGroup",
                    "title": "Insured",
                    "items": [{
                        "type": "column",
                        "title": "Min Term",
                        "items": [{
                            "id": "minTerm",
                            "detailSeq": 1,
                            "title": "Min Term",
                            "type": "text",
                            "subType": "number"
                        }]
                      }, {
                        "type": "column",
                        "title": "Max Term",
                        "items": [{
                            "id": "maxTerm",
                            "detailSeq": 1,
                            "title": "Max Term",
                            "type": "text",
                            "subType": "number"
                        }]
                      }, {
                        "type": "column",
                        "title": "Interval",
                        "items": [{
                            "id": "interval",
                            "detailSeq": 1,
                            "type": "text",
                            "title": "Interval",
                            "subType": "number"
                        }]
                      }, {
                        "type": "column",
                        "title": "Default Value",
                        "items": [{
                            "id": "default",
                            "detailSeq": 1,
                            "type": "text",
                            "title": "Default Value",
                            "subType": "number"
                        }]
                      }, {
                        "type": "column",
                        "title": "Max Age",
                        "items": [{
                            "id": "maxAge",
                            "detailSeq": 1,
                            "title": "Max Age",
                            "type": "text",
                            "subType": "number"
                        }]
                      }, {
                        "type": "column",
                        "title": "Same as Owner",
                        "items": [{
                            "id": "sameAsOwner",
                            "detailSeq": 1,
                            "title": "Same as Owner",
                            "type": "checkbox"
                        }]
                    }]
                }, {
                    "type": "columnGroup",
                    "title": "Owner",
                    "items": [{
                        "type": "column",
                        "title": "Max Owner Age",
                        "items": [{
                            "id": "ownerMaxAge",
                            "detailSeq": 1,
                            "type": "text",
                            "subType": "number",
                            "title": "Max Owner Age",
                            "trigger": [{
                                "type": "disableIfEqual",
                                "id": "sameAsOwner",
                                "value": "Y"
                            },{
                                "type": "valueOverride",
                                "id": "sameAsOwner=Y",
                                "reference": "maxAge"
                            }]
                        }]
                    }]
                }]
            }]
        }, {
            "id": "premMatSection",
            "detailSeq": 1,
            "type": "section",
            "title": "Premium Maturity",
            "items": [{
                "detailSeq": 1,
                "type": "hbox",
                "presentation": "column2",
                "items": [{
                    "id": "premMatSameAsBasic",
                    "detailSeq": 1,
                    "type": "checkbox",
                    "title": "Same as Basic Plan",
                    "trigger": [{
                        "type": "disableIfEqual",
                        "id": "premMatSameAsPolMat",
                        "value": "Y"
                    }],
                    "value": "Y"
                }, {
                    "id": "premMatSameAsPolMat",
                    "detailSeq": 1,
                    "type": "checkbox",
                    "title": "Same as Policy Term List",
                    "trigger": [{
                        "type": "disableIfEqual",
                        "id": "premMatSameAsBasic",
                        "value": "Y"
                    }]
                }, {
                    "id": "premTermInd",
                    "detailSeq": 1,
                    "type": "checkbox",
                    "title": "Allow premium term select"
                }, {
                    "id": "premTermRule",
                    "detailSeq": 1,
                    "type": "picker",
                    "title": "Premium Term Rule",
                    "options": [{
                      "value": "BT",
                      "title": "Value same as Policy Term"
                    }, {
                      "value": "BBT",
                      "title": "Value align to Policy Term of Basic Plan"
                    }, {
                      "value": "BPT",
                      "title": "Value align to Premium Term of Basic Plan"
                    }]
                }]
            }, {
                "id": "premMaturities",
                "detailSeq": 1,
                "type": "complexList",
                "subType": "table",
                "title": "Premium Maturity Condition",
                "trigger": [{
                    "type": "hideIfEqual",
                    "id": "premMatSameAsBasic",
                    "value": "Y"
                }, {
                    "type": "hideIfEqual",
                    "id": "premMatSameAsPolMat",
                    "value": "Y"
                }],
                "items": [{
                    "title": "Country of Residence",
                    "type": "column",
                    "items": [{
                        "id": "country",
                        "type": "picker",
                        "title": "Country of Residence",
                        "trigger": [{
                          "type": "optionExistsInReference",
                          "id": "ProdFeatures/ctyGroup@country"
                        }],
                        "reference":"ProdFeatures/ctyGroup@country",
                        "mandatory": true,
                        "setAll": true
                    }]
                }, {
                    "type": "columnGroup",
                    "title": "Insured",
                    "items": [{
                        "type": "column",
                        "title": "Min Term",
                        "items": [{
                            "id": "minTerm",
                            "detailSeq": 1,
                            "type": "text",
                            "title": "Min Term",
                            "subType": "number"
                        }]
                      }, {
                        "type": "column",
                        "title": "Max Term",
                        "items": [{
                            "id": "maxTerm",
                            "detailSeq": 1,
                            "type": "text",
                            "title": "Max Term",
                            "subType": "number"
                        }]
                      }, {
                        "type": "column",
                        "title": "Interval",
                        "items": [{
                            "id": "interval",
                            "detailSeq": 1,
                            "type": "text",
                            "title": "Interval",
                            "subType": "number"
                        }]
                      }, {
                        "type": "column",
                        "title": "Default Value",
                        "items": [{
                            "id": "default",
                            "detailSeq": 1,
                            "type": "text",
                            "title": "Default Value",
                            "subType": "number"
                        }]
                      }, {
                        "type": "column",
                        "title": "Max Age",
                        "items": [{
                            "id": "maxAge",
                            "detailSeq": 1,
                            "type": "text",
                            "title": "Max Age",
                            "subType": "number"
                        }]
                      }, {
                        "type": "column",
                        "title": "Same as Owner",
                        "items": [{
                            "id": "sameAsOwner",
                            "detailSeq": 1,
                            "title": "Same as Owner",
                            "type": "checkbox"
                        }]
                    }]
                }, {
                    "type": "columnGroup",
                    "title": "Owner",
                    "items": [{
                        "type": "column",
                        "title": "Max Owner Age",
                        "items": [{
                            "id": "ownerMaxAge",
                            "detailSeq": 1,
                            "type": "text",
                            "subType": "number",
                            "title": "Max Owner Age",
                            "trigger": [{
                                "type": "disableIfEqual",
                                "id": "sameAsOwner",
                                "value": "Y"
                            },{
                                "type": "valueOverride",
                                "id": "sameAsOwner=Y",
                                "reference": "maxAge"
                            }]
                        }]
                    }]
                }]
            }]
        }]
    }, {
        "id": "settings",
        "type": "sectionGroup",
        "title": "Product Setting",
        "items": [{
            "id": "ccySection",
            "detailSeq": 1,
            "type": "section",
            "title": "Currency",
            "items": [{
                "id": "currencies",
                "detailSeq": 1,
                "type": "complexList",
                "subType": "table",
                "hints": "Currency accepted by Country",
                "items": [{
                    "title": "Country of Residence",
                    "type": "column",
                    "items": [{
                      "id": "country",
                      "type": "picker",
                      "title": "Country of Residence",
                      "trigger": [{
                        "type": "optionExistsInReference",
                        "id": "ProdFeatures/ctyGroup@country"
                      }],
                      "mandatory": true,
                      "setAll": true,
                      "reference":"ProdFeatures/ctyGroup@country"
                    }]
                }, {
                    "title": "Product Currency",
                    "type": "column",
                    "items": [{
                        "id": "ccy",
                        "type": "selectList",
                        "title": "Product Currency",
						            "optionTable": "SYS_CURRENCY_MST",
                        "presentation": "CURRENCY_CODE,CURRENCY_CODE",
                        "options": [{
                            "value": "HKD",
                            "title": "HKD"
                        }, {
                            "value": "USD",
                            "title": "USD"
                        }, {
                            "value": "RMB",
                            "title": "RMB"
                        }, {
                            "value": "EUR",
                            "title": "EUR"
                        }],
                        "hints": "Select one or more currency(ies)"
                    }]
                }]
            }]
        }, {
            "id": "premStruSection",
            "detailSeq": 1,
            "type": "section",
            "title": "Premium Settings",
            "items": [{
                "type": "hbox",
                "presentation": "column2",
                "detailSeq": 1,
                "items": [{
                    "id": "calcAgeMethod",
                    "detailSeq": 3,
                    "type": "picker",
                    "title": "Calculate Age Method",
                    "options": [{
                        "value": "nearest",
                        "title": "By Nearest Birthday"
                    }, {
                        "value": "next",
                        "title": "By Next Birthday"
                    }, {
                        "value": "current",
                        "title": "Current Age"
                    }]
                }]
            }, {
                "id": "premType",
                "detailSeq": 1,
                "type": "radioGroup",
                "title": "Premium Structure Type",
                "options": [{
                    "value": "L",
                    "title": "Level"
                }, {
                    "value": "R",
                    "title": "Renewal"
                }]
            }, {
                "id": "premStructurs",
                "detailSeq": 1,
                "type": "complexList",
                "subType": "table",
                "trigger": [{
                  "type": "showIfEqual",
                  "id": "premType",
                  "value": "R"
                }],
                "hints": "Premium Structure",
                "items": [{
                    "title": "Policy Year (From)",
                    "detailSeq": 1,
                    "type": "text",
                    "subType": "number",
                    "id": "polYearFrom",
                    "width": "20%",
                    "mandatory": true
                }, {
                    "title": "Policy Year (to)",
                    "detailSeq": 1,
                    "type": "text",
                    "subType": "number",
                    "id": "polYearTo",
                    "width": "20%",
                    "mandatory": true
                }, {
                    "title": "Premium Type",
                    "detailSeq": 1,
                    "type": "picker",
                    "id": "premType",
                    "value": "level",
                    "width": "40%",
                    "options": [{
                        "value": "level",
                        "title": "Level"
                    }, {
                        "value": "renewal",
                        "title": "Renewal"
                    }]
                }, {
                    "title": "Renewal Term (Yrs)",
                    "detailSeq": 1,
                    "type": "text",
                    "subType": "number",
                    "id": "renewTerm",
                    "mandatory": true,
                    "width": "20%",
                    "trigger": [{
                        "type": "enableIfEqual",
                        "id": "premType",
                        "value": "R"
                    }]
                }]
            }]
        }, {
            "id": "payModeSection",
            "detailSeq": 1,
            "type": "section",
            "title": "Payment Mode",
            "items": [{
                "id": "payModes",
                "detailSeq": 1,
                "type": "complexList",
                "subType": "table",
                "hints": "Payment Mode",
                "items": [{
                    "id": "mode",
                    "type": "picker",
                    "title": "Payment Mode",
                    "mandatory": true,
                    "isKey": true,
                    "options": [{
                        "value": "L",
                        "title": "Single Premium"
                    }, {
                        "value": "M",
                        "title": "Monthly"
                    }, {
                        "value": "Q",
                        "title": "Quarterly"
                    }, {
                        "value": "S",
                        "title": "Semi-Annually"
                    }, {
                        "value": "A",
                        "title": "Annually"
                    }]
                }, {
                    "id": "operator",
                    "type": "picker",
                    "title": "Calc. Operator",
                    "mandatory": true,
                    "options": [{
                        "value": "M",
                        "title": "Multiple"
                    }, {
                        "value": "D",
                        "title": "Divide"
                    }]
                }, {
                    "id": "factor",
                    "type": "text",
                    "subType": "number",
                    "mandatory": true,
                    "title": "Factor"
                }, {
                    "id": "covMonth",
                    "type": "text",
                    "subType": "number",
                    "mandatory": true,
                    "title": "Cov. Month"
                }, {
                    "id": "default",
                    "type": "checkbox",
                    "title": "default"
                }]
            }]
        }, {
            "id": "classSection",
            "detailSeq": 1,
            "type": "section",
            "title": "Class",
            "items": [{
                "type": "hbox",
                "presentation": "column2",
                "detailSeq": 1,
                "items": [{
                    "id": "classInd",
                    "detailSeq": 1,
                    "type": "checkbox",
                    "title": "Has Class"
                }, {
                    "id": "classTitle",
                    "detailSeq": 3,
                    "type": "multText",
                    "title": "Class Column Title",
                    "trigger": [{
                        "type": "showIfEqual",
                        "id": "classInd",
                        "value": "Y"
                    }]
                }, {
                    "id": "classInputInd",
                    "detailSeq": 4,
                    "type": "checkbox",
                    "title": "Allow Class Input",
                    "trigger": [{
                        "type": "showIfEqual",
                        "id": "classInd",
                        "value": "Y"
                    }]
                }, {
                    "id": "isOccupClass",
                    "detailSeq": 1,
                    "type": "checkbox",
                    "title": "Is Occupation Class",
                    "trigger": [{
                        "type": "showIfEqual",
                        "id": "classInd",
                        "value": "Y"
                    }]
                }]
            }, {
                "id": "classList",
                "detailSeq": 1,
                "type": "complexList",
                "subType": "table",
                "hints": "Class",
                "placeholder": "No class",
                "trigger": [{
                    "type": "showIfEqual",
                    "id": "classInd",
                    "value": "Y"
                }],
                "items": [{
                    "id": "className",
                    "detailSeq": 1,
                    "type": "multText",
                    "title": "Class Name",
                    "mandatory": true
                }, {
                    "id": "covClass",
                    "title": "Class",
                    "type": "text",
                    "isKey": true,
                    "detailSeq": 1,
                    "mandatory": true
                }, {
                    "title": "Benefit Type",
                    "type": "picker",
                    "id": "valueType",
                    "mandatory": true,
                    "detailSeq": 3,
                    "options": [{
                        "value": "cash",
                        "title": "Daily Cash"
                    }, {
                        "value": "sa",
                        "title": "Sum Assured"
                    }]
                }, {
                    "id": "benefitValue",
                    "title": "Amount",
                    "type": "table",
                    "detailSeq": 4,
                    "presentation": "[ccy]:[amount]",
                    "items": [{
                        "type": "column",
                        "title": "Amount",
                        "items": [{
                            "id": "ccy",
                            "detailSeq": 1,
                            "type": "rowKey",
                            "reference": "ccySection/currencies@ccy"
                        }, {
                            "type": "text",
                            "subType": "number",
                            "id": "amount",
                            "mandatory": true
                        }]
                    }]
                }, {
                    "id": "default",
                    "title": "Default",
                    "detailSeq": 5,
                    "type": "checkbox"
                }]
            }]
        }, {
            "id": "saSection",
            "type": "section",
            "title": "Sum Assured Input",
            "items": [{
                "type": "hbox",
                "presentation": "column2",
                "detailSeq": 1,
                "items": [{
                    "id": "saInputInd",
                    "detailSeq": 1,
                    "type": "checkbox",
                    "title": "Allow Sum Insured Input"
                }, {
                    "id": "saViewInd",
                    "detailSeq": 1,
                    "type": "checkbox",
                    "title": "Display Sum Insured"
                }, {
                    "id": "saScale",
                    "detailSeq": 1,
                    "type": "text",
                    "subType": "number",
                    "title": "Sum Insured Scale"
                }, {
                    "id": "saRule",
                    "detailSeq": 1,
                    "type": "picker",
                    "title": "Sum Assured Rule",
                    "value": "na",
                    "options": [{
                        "value": "BP",
                        "title": "Follow Basic Plan Premium"
                    }, {
                        "value": "BSA",
                        "title": "Follow Basic Plan Sum Assured"
                    }, {
                        "value": "PP",
                        "title": "Follow Policy Premium"
                    }]
                }, {
                    "id": "saRate",
                    "detailSeq": 1,
                    "type": "text",
                    "subType": "number",
                    "title": "SA Referring factor",
                    "mandatory": true,
                    "trigger": [{
                        "type": "showIfExists",
                        "id": "saRule",
                        "value": "BP,BSA,PP"
                    }]
                }, {
                    "id": "saPostfix",
                    "detailSeq": 1,
                    "type": "multText",
                    "title": "SA postfix"
                }]
            }, {
                "id": "saInput",
                "detailSeq": 1,
                "type": "table",
                "title": "Sum Assured Format",
                "items": [{
                    "title": "Currency",
                    "id": "ccy",
                    "type": "rowKey",
                    "reference": "ccySection/currencies@ccy"
                }, {
                    "title": "In multiple of",
                    "type": "text",
                    "subType": "number",
                    "value": 0,
                    "id": "factor"
                }, {
                    "title": "Decimal Point",
                    "type": "text",
                    "subType": "number",
                    "id": "decimal",
                    "mandatory": true,
                    "value": 0
                }]
            }, {
                "id": "benlim",
                "type": "complexList",
                "subType": "table",
                "detailSeq": 2,
                "title": "Limit of Sum Assured",
                "trigger": [{
                    "type": "showIfEqual",
                    "id": "saInputInd",
                    "value": "Y"
                }],
                "items": [{
                  "type": "hbox",
                  "presentation": "column2",
                  "items": [{
                    "id": "country",
                    "type": "picker",
                    "title": "Country of Residence",
                    "trigger": [{
                      "type": "optionExistsInReference",
                      "id": "ProdFeatures/ctyGroup@country"
                    }],
                    "reference":"ProdFeatures/ctyGroup@country",
                    "mandatory": true,
                    "setAll": true
                  }, {
                      "id": "class",
                      "type": "picker",
                      "title": "Class",
                      "reference": "classSection/classList@covClass",
                      "mandatory": true,
                      "setAll": true
                  }, {
                      "id": "ageFr",
                      "type": "text",
                      "title": "Age From",
                      "mandatory": true
                  }, {
                      "id": "ageTo",
                      "type": "text",
                      "title": "Age To",
                      "mandatory": true
                  }]
                }, {
                    "id": "limits",
                    "type": "table",
                    "title": "Limits",
                    "items": [{
                        "id": "payMode",
                        "title": "Payment Mode",
                        "reference": "payModeSection/payModes@mode",
                        "type": "rowKey"
                    }, {
                        "id": "ccy",
                        "title": "Currency",
                        "reference": "ccySection/currencies@ccy",
                        "type": "rowKey"
                    }, {
                        "id": "min",
                        "title": "Minimum",
                        "type": "text",
                        "subType": "number"
                    }, {
                        "id": "max",
                        "title": "Maximum",
                        "type": "text",
                        "subType": "number"
                    }]
                }]
            }]
        }, {
            "id": "othSaSection",
            "type": "section",
            "title": "Alternate SA Input",
            "items": [{
                "id": "othSaInd",
                "detailSeq": 1,
                "type": "checkbox",
                "title": "Have alternate SA input"
            }]
        }, {
            "id": "premSection",
            "type": "section",
            "title": "Premium Input",
            "items": [{
                "type": "hbox",
                "presentation": "column2",
                "detailSeq": 1,
                "items": [{
                    "id": "premInputInd",
                    "detailSeq": 1,
                    "type": "checkbox",
                    "title": "Allow Premium Input"
                }, {
                    "id": "premPostfix",
                    "detailSeq": 1,
                    "type": "multText",
                    "title": "Premium postfix",
                    "items": [{
                        "id": "en",
                        "title": "English"
                    }]
                }]
            }, {
                "id": "premInput",
                "detailSeq": 1,
                "type": "table",
                "title": "Premium Format",
                "items": [{
                    "title": "Currency",
                    "id": "ccy",
                    "type": "rowKey",
                    "reference": "ccySection/currencies@ccy"
                }, {
                    "title": "In multiple of",
                    "type": "text",
                    "subType": "number",
                    "value": 0,
                    "id": "factor"
                }, {
                    "title": "Decimal Point",
                    "type": "text",
                    "subType": "number",
                    "id": "decimal",
                    "mandatory": true,
                    "value": 2
                }]
            }, {
                "id": "premlim",
                "type": "complexList",
                "subType": "table",
                "detailSeq": 2,
                "title": "Limit of Premium",
                "trigger": [{
                    "type": "showIfEqual",
                    "id": "premInputInd",
                    "value": "Y"
                }],
                "items": [{
                    "id": "country",
                    "type": "picker",
                    "title": "Country of Residence",
                    "trigger": [{
                      "type": "optionExistsInReference",
                      "id": "ProdFeatures/ctyGroup@country"
                    }],
                    "reference": "ProdFeatures/ctyGroup@country",
                    "mandatory": true,
                    "setAll": true
                }, {
                    "id": "class",
                    "type": "picker",
                    "title": "Class",
                    "reference": "classSection/classList@covClass",
                    "mandatory": true,
                    "setAll": true
                }, {
                    "id": "ageFr",
                    "type": "text",
                    "title": "Age From",
                    "mandatory": true
                }, {
                    "id": "ageTo",
                    "type": "text",
                    "title": "Age To",
                    "mandatory": true
                }, {
                    "id": "limits",
                    "type": "table",
                    "title": "Limits",
                    "items": [{
                        "id": "payMode",
                        "title": "Payment Mode",
                        "reference": "payModeSection/payModes@mode",
                        "type": "rowKey"
                    }, {
                        "id": "ccy",
                        "title": "Currency",
                        "reference": "ccySection/currencies@ccy",
                        "type": "rowKey"
                    }, {
                        "id": "min",
                        "title": "Minimum",
                        "type": "text",
                        "subType": "number"
                    }, {
                        "id": "max",
                        "title": "Maximum",
                        "type": "text",
                        "subType": "number"
                    }]
                }]
            }]
        }, {
            "id": "planMapSection",
            "type": "section",
            "title": "Plan Code Mapping",
            "items": [{
                "id": "planCodeMapping",
                "type": "genericGrid",
                "detailSeq": 1
            }]
        }]
    }, {
        "id": "ratesSection",
        "type": "section",
        "title": "Rates for Quotation",
        "detailSeq": 1,
        "items": [{
            "id": "rates",
            "type": "detailsTab",
            "detailSeq": 1,
            "value": {
              "premRate": {
                "id": "premRate",
                "title": "Premium Rate"
              }
            },
            "items": [{
                "id": "twoLevel",
                "type": "checkbox",
                "detailSeq": 1,
                "title": "Multiple levels",
                "forConfigOnly": true,
                "value": "N"
              }, {
                "id": "categories",
                "type": "detailsList",
                "trigger": [{
                  "type": "showIfEqual",
                  "id": "twoLevel",
                  "value": "Y"
                }],
                "detailSeq": 1,
                "items": [{
                    "id": "rate",
                    "detailSeq": 1,
                    "type": "rateGrid"
                }]
              }, {
                "id": "rate",
                "detailSeq": 1,
                "type": "rateGrid",
                "trigger": [{
                  "type": "showIfEqual",
                  "id": "twoLevel",
                  "value": "N"
                }]
              }]
        }]
    }, {
        "id": "formulasSection",
        "type": "section",
        "title": "Formulae",
        "items": [{
            "id": "formulas",
            "type": "detailsList",
            "detailSeq": 1,
            "title": "Customizable functions",
            "hints": "Formula",
            "placeholder": "No formula",
            "value": {
                "prepareClassConfig": {
                    "id": "prepareClassConfig",
                    "type": "override",
                    "title": "Initialize the input field of Class",
                    "seq": 1,
                    "default": true,
                    "inputParams": [{
                        "id": "planDetail",
                        "type": "planDetail"
                    }, {
                        "id": "quotation",
                        "type": "quotation"
                    }, {
                        "id": "planDetails",
                        "type": "planDetails"
                    }]
                },
                "prepareTermConfig": {
                    "id": "prepareTermConfig",
                    "type": "override",
                    "title": "Initialize the input fields of Policy Term and Premium Term",
                    "seq": 2,
                    "default": true,
                    "inputParams": [{
                        "id": "planDetail",
                        "type": "planDetail"
                    }, {
                        "id": "quotation",
                        "type": "quotation"
                    }, {
                        "id": "planDetails",
                        "type": "planDetails"
                    }]
                },
                "polTermsFunc": {
                    "id": "polTermsFunc",
                    "type": "override",
                    "title": "Generate Policy Term option list",
                    "seq": 3,
                    "default": true,
                    "inputParams": [{
                        "id": "planDetail",
                        "type": "planDetail"
                    }, {
                        "id": "quotation",
                        "type": "quotation"
                    }]
                },
                "premTermsFunc": {
                    "id": "premTermsFunc",
                    "type": "override",
                    "title": "Generate Premium Term option list",
                    "seq": 4,
                    "default": true,
                    "inputParams": [{
                        "id": "planDetail",
                        "type": "planDetail"
                    }, {
                        "id": "quotation",
                        "type": "quotation"
                    }]
                },
                "prepareSAPremConfig": {
                    "id": "prepareSAPremConfig",
                    "type": "override",
                    "title": "Initialize the input fields of SA and Premium",
                    "seq": 5,
                    "default": true,
                    "inputParams": [{
                        "id": "planDetail",
                        "type": "planDetail"
                    }, {
                        "id": "quotation",
                        "type": "quotation"
                    }, {
                        "id": "planDetails",
                        "type": "planDetails"
                    }]
                },
                "willValidQuotFunc": {
                    "id": "willValidQuotFunc",
                    "type": "override",
                    "title": "Initialize the Quotation before validate",
                    "seq": 6,
                    "default": true,
                    "inputParams": [{
                        "id": "quotation",
                        "type": "quotation"
                    }, {
                        "id": "planInfo",
                        "type": "planInfo"
                    }, {
                        "id": "planDetails",
                        "type": "planDetails"
                    }]
                },
                "validQuotFunc": {
                    "id": "validQuotFunc",
                    "type": "override",
                    "title": "Validate and Calculate the Quotation",
                    "seq": 7,
                    "default": true,
                    "inputParams": [{
                        "id": "quotation",
                        "type": "quotation"
                    }, {
                        "id": "planDetails",
                        "type": "planDetails"
                    }]
                },
                "validBeforeCalcFunc": {
                    "id": "validBeforeCalcFunc",
                    "type": "override",
                    "title": "Validate the Quotation before Calculate",
                    "seq": 8,
                    "default": true,
                    "inputParams": [{
                        "id": "quotation",
                        "type": "quotation"
                    }, {
                        "id": "planInfo",
                        "type": "planInfo"
                    }, {
                        "id": "planDetails",
                        "type": "planDetails"
                    }]
                },
                "saFunc": {
                    "id": "saFunc",
                    "type": "override",
                    "title": "Calculate Sum Assured base on the input",
                    "seq": 9,
                    "default": true,
                    "inputParams": [{
                        "id": "quotation",
                        "type": "quotation"
                    }, {
                        "id": "planInfo",
                        "type": "planInfo"
                    }, {
                        "id": "planDetail",
                        "type": "planDetail"
                    }]
                },
                "premFunc": {
                    "id": "premFunc",
                    "type": "override",
                    "title": "Calculate premium base on the input",
                    "seq": 10,
                    "default": true,
                    "inputParams": [{
                        "id": "quotation",
                        "type": "quotation"
                    }, {
                        "id": "planInfo",
                        "type": "planInfo"
                    }, {
                        "id": "planDetail",
                        "type": "planDetail"
                    }]
                },
                "calcQuotFunc": {
                    "id": "calcQuotFunc",
                    "type": "override",
                    "title": "Calculate the Quotation",
                    "seq": 11,
                    "default": true,
                    "inputParams": [{
                        "id": "quotation",
                        "type": "quotation"
                    }, {
                        "id": "planInfo",
                        "type": "planInfo"
                    }, {
                        "id": "planDetails",
                        "type": "planDetails"
                    }]
                },
                "validAfterCalcFunc": {
                    "id": "validAfterCalcFunc",
                    "type": "override",
                    "title": "Validate or post-action after Calculate",
                    "seq": 12,
                    "default": true,
                    "inputParams": [{
                        "id": "quotation",
                        "type": "quotation"
                    }, {
                        "id": "planInfo",
                        "type": "planInfo"
                    }, {
                        "id": "planDetail",
                        "type": "planDetail"
                    }]
                },
                "illustrateFunc": {
                    "id": "illustrateFunc",
                    "type": "override",
                    "title": "Calculate the illustration",
                    "seq": 13,
                    "default": true,
                    "inputParams": [{
                        "id": "quotation",
                        "type": "quotation"
                    }, {
                        "id": "planInfo",
                        "type": "planInfo"
                    }, {
                        "id": "planDetails",
                        "type": "planDetails"
                    }, {
                        "id": "extraPara",
                        "type": "extraPara"
                    }]
                }
            },
            "items": [{
                "id": "func",
                "type": "jseditor",
                "detailSeq": 3
            }]
        }]
    }, {
        "id": "attachmentSection",
        "type": "section",
        "title": "Attachments",
        "items": [{
            "id": "thumbnail3",
            "detailSeq": 1,
            "type": "FILEUPLOAD",
            "subType": "attachment",
            "presentation": "image/jpg,image/jpeg,image/png|340,481,340,481|1",
            "title": "Product thumbnail (340 x 481)"
        }, {
            "id": "prod_summary",
            "detailSeq": 6,
            "type": "FILEUPLOAD",
            "subType": "attachment",
            "presentation": "application/pdf||10",
            "title": "Product Summary"
        }, {
            "id": "prod_summary_1",
            "detailSeq": 7,
            "type": "FILEUPLOAD",
            "subType": "attachment",
            "presentation": "application/pdf||10",
            "title": "Product Summary (1)"
        }, {
            "id": "prod_summary_2",
            "detailSeq": 8,
            "type": "FILEUPLOAD",
            "subType": "attachment",
            "presentation": "application/pdf||10",
            "title": "Product Summary (2)"
        }]
    }]
}
