{
	"type": "productFunc",
	"version": 1.0,
	"api": [{
      		"title": "Initialize Quotation input fields",
          "items": [{
      				"title": "polTermsFunc(...): array",
      				"value": "quotDriver.polTermsFunc(planDetail, quotation);",
      				"desc": "Default function to generate policy term options with policy maturities."
      			},{
      				"title": "premTermsFunc(...): array",
      				"value": "quotDriver.premTermsFunc(planDetail, quotation);",
      				"desc": "Default function to generate premium term options with policy maturities."
      			}]
      	}, {
      		"title": "Quotation calculation",
          "items": [{
      				"title": "getPremTerm(...): integer",
      				"desc": "Get premium term in integer.",
      				"value": "quotCalc.getPremTerm(quotation, planDetail, planInfo);"
      			},{
      				"title": "getPolicyTerm(...): integer",
      				"desc": "Get policy term in integer.",
      				"value": "quotCalc.getPolicyTerm(quotation, planDetail, planInfo);"
      			},{
      				"title": "getPaymentMode(...): object",
      				"desc": "Get Payment mode object contains the factor.",
      				"value": "quotCalc.getPaymentMode(modeStr, planDetail);"
      			},{
      				"title": "getAnnPrem(...): number",
      				"desc": "Get annual premium based by plan premium and payment mode.",
      				"value": "quotCalc.getAnnPrem(quotation, planDetail, planInfo);"
      			},{
      				"title": "getSAScale(...): number",
      				"desc": "get Sum Assured scale by currency.",
      				"value": "quotCalc.getSAScale(quotation, planDetail);"
      			},{
      				"title": "updateQuotationPremium(...): void",
      				"desc": "Update premium for different payment modes at once.",
      				"value": "quotCalc.updateQuotationPremium(quotation, planInfo, planDetail);"
      			},{
      				"title": "calcQuotPlan(...): void",
      				"desc": "Default function to calculate quotation by calling saFunc and PremFunc.",
      				"value": "quotCalc.calcQuotPlan(quotation, planInfo, planDetails);"
      			}]
      	}, {
      		"title": "Quotation validation",
          "items": [{
      				"title": "validateSALimit(...): void",
      				"desc": "Validate sum assured for minimum and maximum.",
      				"value": "quotValid.validateSALimit(quotation, planInfo, planDetail);"
      			},{
      				"title": "validatePreimumLimit(...): void",
      				"desc": "Validate premium for minimum and maximum.",
      				"value": "quotValid.validatePreimumLimit(quotation, planInfo, planDetail);"
      			},{
      				"title": "validateSAMultiple(...): void",
      				"desc": "Validate sum assured for multiple.",
      				"value": "quotValid.validateSAMultiple(quotation, planInfo, planDetail);"
      			},{
      				"title": "validateCoexist(...): void",
      				"desc": "validate plan for coexist rule.",
      				"value": "quotValid.validateCoexist(quotation, planInfo, planDetail);"
      			},{
      				"title": "validateMandatoryFields(...): void",
      				"desc": "validate plan for mandatory fields.",
      				"value": "quotValid.validateMandatoryFields(quotation, planInfo, planDetail);"
      			},{
      				"title": "validatePlanAfterCalc(...): void",
      				"desc": "validate plans after calculation.",
      				"value": "quotValid.validatePlanAfterCalc(quotation, planInfo, planDetail);"
      			},{
      				"title": "validatePlanBeforeCalc(...): void",
      				"desc": "validate plan before calculation.",
      				"value": "quotValid.validatePlanBeforeCalc(quotation, planInfo, planDetail);"
      			}]
      	}, {
      		"title": "Utilities",
          "items": [{
      				"title": "runFunc(...): anyObject",
      				"value": "quotDriver.runFunc(funcStr, ...);",
      				"desc": "Execute formulae in planDetail."
      			}, {
      				"title": "addError(...): void",
      				"value": "quotDriver.context.addError(error);",
      				"desc": "Add error to error array which will return together with result."
      			}, {
      				"title": "getCurrency(...): string",
      				"value": "getCurrency(amt, sign, decimals);",
      				"desc": "Convert number to currency presentation."
      			}, {
      				"title": "getCurAge(...): integer",
      				"value": "getCurAge(dob, planDetail);",
      				"desc": "Get the age by date of birth according to calculation method."
      			}, {
      				"title": "isNumber(...): bool",
      				"value": "isNumber(obj);",
      				"desc": "Check if the obj is a number."
      			}]

    }]
}
